<?xml version="1.0" encoding="UTF-8"?>
<CustomTab xmlns="http://soap.sforce.com/2006/04/metadata">
    <description>Bid Team Dashboard</description>
    <label>Bid Team Dashboard</label>
    <mobileReady>false</mobileReady>
    <motif>Custom40: Credit card</motif>
    <page>BidTeamDashboard</page>
</CustomTab>
