<?xml version="1.0" encoding="UTF-8"?>
<CustomTab xmlns="http://soap.sforce.com/2006/04/metadata">
    <customObject>true</customObject>
    <description>Created by Vikram Singh under CR-11576</description>
    <mobileReady>false</mobileReady>
    <motif>Custom20: Airplane</motif>
</CustomTab>
