<?xml version="1.0" encoding="UTF-8"?>
<CustomTab xmlns="http://soap.sforce.com/2006/04/metadata">
    <auraComponent>LXC_CSM_TECHNO_CSH_QueueAssignment</auraComponent>
    <label>CSH Techno Queue Assignment</label>
    <mobileReady>false</mobileReady>
    <motif>Custom67: Gears</motif>
</CustomTab>
