<?xml version="1.0" encoding="UTF-8"?>
<CustomTab xmlns="http://soap.sforce.com/2006/04/metadata">
    <description>Created by Lightning App Builder</description>
    <flexiPage>CSM_Home_Page_for_CRM</flexiPage>
    <label>CSM Home Page</label>
    <mobileReady>true</mobileReady>
    <motif>Custom100: TV Widescreen</motif>
</CustomTab>
