<?xml version="1.0" encoding="UTF-8"?>
<CustomTab xmlns="http://soap.sforce.com/2006/04/metadata">
    <auraComponent>LXC_CPQ_LaunchGBOCRMComplianceXAEApp</auraComponent>
    <description>It will show GBO CRM Compliance apps.</description>
    <label>GBO CRM Compliance</label>
    <mobileReady>false</mobileReady>
    <motif>Custom55: Books</motif>
</CustomTab>
