<?xml version="1.0" encoding="UTF-8"?>
<CustomTab xmlns="http://soap.sforce.com/2006/04/metadata">
    <description>Created by Lightning App Builder</description>
    <flexiPage>Knowledge_browser</flexiPage>
    <label>Knowledge browser</label>
    <mobileReady>true</mobileReady>
    <motif>Custom13: Box</motif>
</CustomTab>
