<?xml version="1.0" encoding="UTF-8"?>
<CustomTab xmlns="http://soap.sforce.com/2006/04/metadata">
    <description>Created by Lightning App Builder</description>
    <flexiPage>Mikado_Reports</flexiPage>
    <label>Mikado Reports</label>
    <mobileReady>false</mobileReady>
    <motif>Custom66: Dice</motif>
</CustomTab>
