<?xml version="1.0" encoding="UTF-8"?>
<CustomTab xmlns="http://soap.sforce.com/2006/04/metadata">
    <label>My Renewals Dashboard</label>
    <mobileReady>false</mobileReady>
    <motif>Custom26: Flag</motif>
    <page>VFP_CRM_OpportunityRenewal_Dashboard</page>
</CustomTab>
