<?xml version="1.0" encoding="UTF-8"?>
<CustomTab xmlns="http://soap.sforce.com/2006/04/metadata">
    <customObject>true</customObject>
    <description>CSM-ACN-S-0124 - Tab for custom object Study</description>
    <mobileReady>false</mobileReady>
    <motif>Custom62: Chalkboard</motif>
</CustomTab>
